{
    "fluentMethods": true,
    "relationships": [
        {
            "relationshipType": "many-to-one",
            "relationshipName": "diamondCategory",
            "otherEntityName": "diamondCategory",
            "otherEntityField": "diamondCategoryTitle_fa"
        },
        {
            "relationshipType": "many-to-one",
            "relationshipName": "electronicService",
            "otherEntityName": "electronicService",
            "otherEntityField": "elecServiceTitle_fa"
        }
    ],
    "fields": [
        {
            "fieldName": "elecDiamondCategoryScore",
            "fieldType": "Double"
        }
    ],
    "changelogDate": "20170830110757",
    "entityTableName": "elec_service_diamond_category",
    "dto": "no",
    "pagination": "pagination",
    "service": "serviceImpl"
}