{
    "fluentMethods": true,
    "relationships": [
        {
            "relationshipType": "many-to-one",
            "relationshipName": "evaluation",
            "otherEntityName": "evaluation",
            "otherEntityField": "evalTitle_fa"
        },
        {
            "relationshipType": "many-to-one",
            "relationshipName": "maturityStage",
            "otherEntityName": "maturityStage",
            "otherEntityField": "maturityStageTitle_fa"
        }
    ],
    "fields": [
        {
            "fieldName": "evalMaturityStateScore",
            "fieldType": "Double"
        }
    ],
    "changelogDate": "20170830110754",
    "entityTableName": "evaluation_maturity_state",
    "dto": "no",
    "pagination": "pagination",
    "service": "serviceImpl"
}