{
    "fluentMethods": true,
    "relationships": [],
    "fields": [
        {
            "fieldName": "unMaturityTitlefa",
            "fieldType": "String",
            "fieldValidateRules": [
                "required"
            ]
        },
        {
            "fieldName": "unMaturityTitleen",
            "fieldType": "String",
            "fieldValidateRules": [
                "required"
            ]
        }
    ],
    "changelogDate": "20170830110747",
    "entityTableName": "un_maturity_model",
    "dto": "no",
    "pagination": "pagination",
    "service": "serviceImpl"
}